\relax 
\@writefile{toc}{\contentsline {section}{\numberline {1}Testing Problem:}{1}}
\@writefile{toc}{\contentsline {subsection}{\numberline {1.1}1D case}{1}}
\@writefile{toc}{\contentsline {subsection}{\numberline {1.2}2D case}{1}}
\@writefile{toc}{\contentsline {section}{\numberline {2}Preliminaries:}{1}}
\newlabel{eq: real-es}{{1}{1}}
\@writefile{toc}{\contentsline {section}{\numberline {3}Numerical result: 2D}{2}}
\@writefile{toc}{\contentsline {subsection}{\numberline {3.1}Motivation Testing}{2}}
\@writefile{toc}{\contentsline {subsubsection}{\numberline {3.1.1}Sum of absolute value of coefficients: -surr-sumabs-es}{3}}
\@writefile{lof}{\contentsline {figure}{\numberline {1}{\ignorespaces Error Distribution for surr-sumabs }}{3}}
\@writefile{toc}{\contentsline {subsection}{\numberline {3.2}Surrogate Error Estimate RB Testing}{4}}
\@writefile{lof}{\contentsline {figure}{\numberline {2}{\ignorespaces Error Convergence: top left: RBM, top right: sumabs, bottom left: sumsquare, bottom right: maxabs }}{4}}
\newlabel{fig:trend-sur}{{2}{4}}
\@writefile{lof}{\contentsline {figure}{\numberline {3}{\ignorespaces True Error Convergence Comparison }}{4}}
\@writefile{lof}{\contentsline {figure}{\numberline {4}{\ignorespaces Key parameter location: top left: sumabs, top right: sumsquare, bottom left: maxabs }}{5}}
\@writefile{toc}{\contentsline {section}{\numberline {4}Numerical result: 1D}{5}}
\@writefile{toc}{\contentsline {subsection}{\numberline {4.1}Motivation Testing}{5}}
\@writefile{toc}{\contentsline {subsubsection}{\numberline {4.1.1}Sum of absolute value of coefficients: -surr-sumabs-es}{6}}
\@writefile{lof}{\contentsline {figure}{\numberline {5}{\ignorespaces Error Distribution for surr-sumabs }}{6}}
\@writefile{toc}{\contentsline {subsection}{\numberline {4.2}Surrogate Error Estimate RB Testing}{6}}
\@writefile{lof}{\contentsline {figure}{\numberline {6}{\ignorespaces Error Convergence: top left: RBM, top right: sumabs, bottom left: sumsquare, bottom right: maxabs }}{7}}
\newlabel{fig:trend-sur}{{6}{7}}
\@writefile{lof}{\contentsline {figure}{\numberline {7}{\ignorespaces True Error Convergence Comparison }}{7}}
\@writefile{lof}{\contentsline {figure}{\numberline {8}{\ignorespaces Key parameter location: top left: sumabs, top right: sumsquare, bottom left: maxabs }}{8}}
